{
  "info": {
    "hostname": "sujay-VirtualBox",
    "info": "libmkedd 0.4.0",
    "system": "Linux sujay-VirtualBox 5.4.0-47-generic #51~18.04.1-Ubuntu SMP Sat Sep 5 14:35:50 UTC 2020 x86_64",
    "timestamp": "23-09-2020 10:25:27",
    "username": "sujay",
    "version": "0.4.0"
  },
  "params": [
    {
      "calib": "../test01/mkedet01-collut.bin",
      "images": [
        "../test01/img.png"
      ],
      "name": "VGA DD_SECTION_COLLUT BoxLut3",
      "pidx": [
        0
      ],
      "profile": {
        "classifier": {
          "store_dbg_data": false,
          "type": "NgCircLinear"
        },
        "detector": {
          "box_delta": 2,
          "curv_ratio": 1.15,
          "no_epochs": 0,
          "no_threads": 4,
          "store_dbg_data": false,
          "threshold": 8,
          "type": "BoxLut3"
        },
        "interpolator": {
          "type": "NullInterpolator"
        },
        "postprocessor": {
          "type": "NullPostprocessor"
        },
        "rasterizer": {
          "type": "NullRasterizer"
        }
      },
      "runs": 100
    }
  ],
  "results": [
    {
      "fps": 333.8655517480304,
      "stats": {
        "calib_file": {
          "file_name": "/home/sujay/magikeye/perf/mkert/mkedd/data/test00/../test01/mkedet01-collut.bin",
          "file_type": "CALIB_FILE_MKEDET01",
          "header": {
            "hostname": "xps-13",
            "ipaddr": "172.17.0.1 192.168.250.1 192.168.4.11",
            "serial_number": "P010R01S000-X",
            "timestamp": "10-Aug-2018 14:36:27",
            "uname": "Linux xps-13 4.14.0-041400rc3-generic #201710011930 SMP Sun Oct 1 23:31:52 UTC 2017 x86_64 x86_64 x86_64 GNU/Linux",
            "username": "jheller"
          },
          "md5sum": "d186812a3338cb402a583caa2cb47f14",
          "no_pipelines": 1,
          "section_types": [
            "DD_SECTION_COLLUT",
            "DC_SECTION_UNKNOWN",
            "IP_SECTION_UNKNOWN",
            "PP_SECTION_EMPTY",
            "RR_SECTION_UNKNOWN"
          ]
        },
        "pipeline": {
          "classifier": [
            {}
          ],
          "detector": [
            {
              "timers": {
                "BoxLut3Detector": {
                  "accums_timer_s": 0.0,
                  "bpeak_timer_s": 0.0,
                  "conv_timer_s": 0.0,
                  "filter_timer_s": 0.0,
                  "nms_timer_s": 0.0,
                  "user_timer_s": 0.0
                }
              }
            }
          ],
          "interpolator": [
            {}
          ],
          "laser_patterns": [
            1
          ],
          "postprocessor": [
            {}
          ],
          "rasterizer": [
            {}
          ]
        },
        "version": "libmkedd 0.4.0"
      }
    }
  ]
}